anem-vignette • anem
…
The generate_image_wells() function generates well images to recreate the bounderies defined by the aquifer, aquifer_unconfined.

# define wells and well images
set.seed(15)
wells_actual <- define_wells(x = runif(8,0,1000),
                             y = c(runif(4,0,500),runif(4,500,1000)),
                             Q = -1/4,
                             diam = 1,
                             R = 1000,
                             weights = 1,
                             country = rep(c("A","B"),each=4))
wells <- wells_actual %>% generate_image_wells(aquifer_unconfined)
print(wells)
#> # A tibble: 68 x 11
#>      wID     Q     R  diam     x      y well_type well_image weights
#>    <dbl> <dbl> <dbl> <dbl> <dbl>  <dbl> <fct>     <chr>        <dbl>
#>  1     1 -0.25  1000     1  602.  344.  Pumping   Actual           1
#>  2     2 -0.25  1000     1  195.  416.  Pumping   Actual           1
#>  3     3 -0.25  1000     1  966.   52.3 Pumping   Actual           1
#>  4     4 -0.25  1000     1  651.  323.  Pumping   Actual           1
#>  5     5 -0.25  1000     1  367.  755.  Pumping   Actual           1
#>  6     6 -0.25  1000     1  989.  853.  Pumping   Actual           1
#>  7     7 -0.25  1000     1  815.  931.  Pumping   Actual           1
#>  8     8 -0.25  1000     1  254.  921.  Pumping   Actual           1
#>  9     9 -0.25  1000     1  602. 1656.  Pumping   Image (+Q)       1
#> 10    10 -0.25  1000     1  602. -344.  Pumping   Image (+Q)       1
#> # … with 58 more rows, and 2 more variables: country <chr>, orig_wID <int>
…
